[gd_resource type="TileSet" load_steps=2 format=2]

[ext_resource path="res://tiles/castle/tiles_castle.png" type="Texture" id=1]

[resource]

0/name = "Sprite"
0/texture = ExtResource( 1 )
0/tex_offset = Vector2( 0, 0 )
0/modulate = Color( 1, 1, 1, 1 )
0/region = Rect2( 0, 0, 192, 64 )
0/is_autotile = true
0/autotile/bitmask_mode = 0
0/autotile/icon_coordinate = Vector2( 1, 1 )
0/autotile/tile_size = Vector2( 16, 16 )
0/autotile/spacing = 0
0/autotile/bitmask_flags = [ Vector2( 0, 0 ), 256, Vector2( 0, 1 ), 260, Vector2( 0, 2 ), 4, Vector2( 1, 0 ), 320, Vector2( 1, 1 ), 325, Vector2( 1, 2 ), 5, Vector2( 2, 0 ), 64, Vector2( 2, 1 ), 65, Vector2( 2, 2 ), 1, Vector2( 3, 0 ), 69, Vector2( 3, 1 ), 321, Vector2( 4, 0 ), 261, Vector2( 4, 1 ), 324 ]
0/autotile/occluder_map = [  ]
0/autotile/navpoly_map = [  ]
0/autotile/priority_map = [  ]
0/occluder_offset = Vector2( 96, 32 )
0/navigation_offset = Vector2( 96, 32 )
0/shapes = [  ]
_sections_unfolded = [ "0" ]

