[gd_scene load_steps=6 format=2]

[ext_resource path="res://actors/oxike/oxike.gd" type="Script" id=1]
[ext_resource path="res://actors/enemies/sprites_enemies.png" type="Texture" id=2]

[sub_resource type="Animation" id=1]

resource_name = "default"
length = 1.5
loop = true
step = 0.1
tracks/0/type = "value"
tracks/0/path = NodePath("Sprite:frame")
tracks/0/interp = 1
tracks/0/loop_wrap = true
tracks/0/imported = false
tracks/0/enabled = true
tracks/0/keys = {
"times": PoolRealArray( 0, 0.2, 0.4, 1.1, 1.3, 1.5 ),
"transitions": PoolRealArray( 1, 1, 1, 1, 1, 1 ),
"update": 1,
"values": [ 0, 1, 2, 3, 4, 5 ]
}

[sub_resource type="RectangleShape2D" id=2]

custom_solver_bias = 0.0
extents = Vector2( 12, 12 )

[sub_resource type="RectangleShape2D" id=3]

custom_solver_bias = 0.0
extents = Vector2( 7, 7 )

[node name="Oxike" type="KinematicBody2D"]

input_pickable = false
collision_layer = 1
collision_mask = 26
collision/safe_margin = 0.08
script = ExtResource( 1 )
_sections_unfolded = [ "Collision" ]
SPEED = 0
TYPE = "ENEMY"
SUBTYPE = "oxike"
HEALTH = 0
DAMAGE = 1
MANA = 0
direction = Vector2( 0.5, 0 )

[node name="anim" type="AnimationPlayer" parent="." index="0"]

root_node = NodePath("..")
autoplay = ""
playback_process_mode = 1
playback_default_blend_time = 0.0
playback_speed = 1.0
anims/default = SubResource( 1 )
blend_times = [  ]

[node name="Sprite" type="Sprite" parent="." index="1"]

texture = ExtResource( 2 )
vframes = 32
hframes = 10
frame = 1
_sections_unfolded = [ "Animation", "Offset", "Region" ]

[node name="CollisionShape2D" type="CollisionShape2D" parent="." index="2"]

position = Vector2( -0.166591, 0.133531 )
scale = Vector2( 0.605508, 0.533668 )
shape = SubResource( 2 )

[node name="hitbox" type="Area2D" parent="." index="3"]

input_pickable = true
gravity_vec = Vector2( 0, 1 )
gravity = 98.0
linear_damp = 0.1
angular_damp = 1.0
audio_bus_override = false
audio_bus_name = "Master"

[node name="CollisionShape2D" type="CollisionShape2D" parent="hitbox" index="0"]

shape = SubResource( 3 )


