[gd_scene load_steps=2 format=2]

[ext_resource path="res://tiles/plains/tiles_path_dirt.png" type="Texture" id=1]

[node name="PlainsAutoTile" type="Node" index="0"]

[node name="Sprite" type="Sprite" parent="." index="0"]

texture = ExtResource( 1 )
centered = false
_sections_unfolded = [ "Material", "Offset", "Region", "Visibility" ]


