[gd_scene load_steps=2 format=2]

[sub_resource type="BitmapFont" id=1]

textures = [  ]
chars = PoolIntArray(  )
kernings = PoolIntArray(  )
height = 1.0
ascent = 0.0
distance_field = false
_sections_unfolded = [ "Resource" ]

[node name="Counter" type="NinePatchRect"]

anchor_left = 0.0
anchor_top = 0.0
anchor_right = 1.0
anchor_bottom = 0.0
margin_left = 16.0
margin_top = 5.0
margin_right = -384.0
margin_bottom = 13.0
rect_pivot_offset = Vector2( 0, 0 )
rect_clip_content = false
mouse_filter = 2
mouse_default_cursor_shape = 0
size_flags_horizontal = 1
size_flags_vertical = 1
draw_center = false
patch_margin_left = 1
patch_margin_top = 1
patch_margin_right = 1
patch_margin_bottom = 1
_sections_unfolded = [ "Patch Margin", "Rect" ]

[node name="Label" type="Label" parent="." index="0"]

anchor_left = 0.0
anchor_top = 0.0
anchor_right = 0.0
anchor_bottom = 0.0
margin_right = 10.0
margin_bottom = 10.0
rect_pivot_offset = Vector2( 0, 0 )
rect_clip_content = false
mouse_filter = 2
mouse_default_cursor_shape = 0
size_flags_horizontal = 0
size_flags_vertical = 0
custom_fonts/font = SubResource( 1 )
custom_colors/font_color = Color( 1, 1, 1, 1 )
text = "ABCDEF"
align = 1
valign = 1
percent_visible = 1.0
lines_skipped = 0
max_lines_visible = 1
_sections_unfolded = [ "Anchor", "Grow Direction", "Hint", "Margin", "Rect", "Size Flags", "Visibility", "custom_colors", "custom_constants", "custom_fonts" ]


